// Jest Snapshot v1, https://goo.gl/fbAQLP

exports[`Footer Snapshot 1`] = `
Object {
  "asFragment": [Function],
  "baseElement": <body>
    <div>
      <footer
        class="footer"
      >
        <div
          class="news"
        >
          <div
            class="wrapper"
          >
            <div
              class="text"
            >
              <strong>
                Newsletter
              </strong>
              <span>
                Cadastre-se para receber nossas novidades e promoções
              </span>
            </div>
            <div
              class="fields"
            >
              <div
                class="MuiFormControl-root MuiTextField-root name"
              >
                <div
                  class="MuiInputBase-root MuiInput-root MuiInput-underline MuiInputBase-formControl MuiInput-formControl"
                >
                  <input
                    aria-invalid="false"
                    class="MuiInputBase-input MuiInput-input"
                    placeholder="Nome"
                    type="text"
                    value=""
                  />
                </div>
              </div>
              <div
                class="MuiFormControl-root MuiTextField-root email"
              >
                <div
                  class="MuiInputBase-root MuiInput-root MuiInput-underline MuiInputBase-formControl MuiInput-formControl"
                >
                  <input
                    aria-invalid="false"
                    class="MuiInputBase-input MuiInput-input"
                    placeholder="E-mail"
                    type="text"
                    value=""
                  />
                </div>
              </div>
              <button
                class="MuiButtonBase-root MuiButton-root MuiButton-text button"
                tabindex="0"
                type="button"
              >
                <span
                  class="MuiButton-label"
                >
                  OK
                </span>
                <span
                  class="MuiTouchRipple-root"
                />
              </button>
            </div>
          </div>
        </div>
        <div
          class="menu"
        >
          <svg
            aria-hidden="true"
            class="MuiSvgIcon-root icon"
            focusable="false"
            viewBox="0 0 24 24"
          >
            <path
              d="M7.41 8.59L12 13.17l4.59-4.58L18 10l-6 6-6-6 1.41-1.41z"
            />
          </svg>
          <ul>
            <li>
              A marca
            </li>
            <li>
              Minha conta
            </li>
            <li>
              Políticas
            </li>
            <li>
              Formas de pagamento
            </li>
            <li>
              Newsletter
            </li>
          </ul>
        </div>
        <small>
          RBX RIO COMÉRCIO DE ROUPAS LTDA. ESTRADA DOS BANDEIRANTES, 1.700 - GALPÃO 03, ARMAZÉM 104 - TAQUARA, RIO DE JANEIRO, RJ - CEP: 22775-109. CNPJ: 10.285.590/0002-80.
        </small>
      </footer>
    </div>
  </body>,
  "container": <div>
    <footer
      class="footer"
    >
      <div
        class="news"
      >
        <div
          class="wrapper"
        >
          <div
            class="text"
          >
            <strong>
              Newsletter
            </strong>
            <span>
              Cadastre-se para receber nossas novidades e promoções
            </span>
          </div>
          <div
            class="fields"
          >
            <div
              class="MuiFormControl-root MuiTextField-root name"
            >
              <div
                class="MuiInputBase-root MuiInput-root MuiInput-underline MuiInputBase-formControl MuiInput-formControl"
              >
                <input
                  aria-invalid="false"
                  class="MuiInputBase-input MuiInput-input"
                  placeholder="Nome"
                  type="text"
                  value=""
                />
              </div>
            </div>
            <div
              class="MuiFormControl-root MuiTextField-root email"
            >
              <div
                class="MuiInputBase-root MuiInput-root MuiInput-underline MuiInputBase-formControl MuiInput-formControl"
              >
                <input
                  aria-invalid="false"
                  class="MuiInputBase-input MuiInput-input"
                  placeholder="E-mail"
                  type="text"
                  value=""
                />
              </div>
            </div>
            <button
              class="MuiButtonBase-root MuiButton-root MuiButton-text button"
              tabindex="0"
              type="button"
            >
              <span
                class="MuiButton-label"
              >
                OK
              </span>
              <span
                class="MuiTouchRipple-root"
              />
            </button>
          </div>
        </div>
      </div>
      <div
        class="menu"
      >
        <svg
          aria-hidden="true"
          class="MuiSvgIcon-root icon"
          focusable="false"
          viewBox="0 0 24 24"
        >
          <path
            d="M7.41 8.59L12 13.17l4.59-4.58L18 10l-6 6-6-6 1.41-1.41z"
          />
        </svg>
        <ul>
          <li>
            A marca
          </li>
          <li>
            Minha conta
          </li>
          <li>
            Políticas
          </li>
          <li>
            Formas de pagamento
          </li>
          <li>
            Newsletter
          </li>
        </ul>
      </div>
      <small>
        RBX RIO COMÉRCIO DE ROUPAS LTDA. ESTRADA DOS BANDEIRANTES, 1.700 - GALPÃO 03, ARMAZÉM 104 - TAQUARA, RIO DE JANEIRO, RJ - CEP: 22775-109. CNPJ: 10.285.590/0002-80.
      </small>
    </footer>
  </div>,
  "debug": [Function],
  "findAllByAltText": [Function],
  "findAllByDisplayValue": [Function],
  "findAllByLabelText": [Function],
  "findAllByPlaceholderText": [Function],
  "findAllByRole": [Function],
  "findAllByTestId": [Function],
  "findAllByText": [Function],
  "findAllByTitle": [Function],
  "findByAltText": [Function],
  "findByDisplayValue": [Function],
  "findByLabelText": [Function],
  "findByPlaceholderText": [Function],
  "findByRole": [Function],
  "findByTestId": [Function],
  "findByText": [Function],
  "findByTitle": [Function],
  "getAllByAltText": [Function],
  "getAllByDisplayValue": [Function],
  "getAllByLabelText": [Function],
  "getAllByPlaceholderText": [Function],
  "getAllByRole": [Function],
  "getAllByTestId": [Function],
  "getAllByText": [Function],
  "getAllByTitle": [Function],
  "getByAltText": [Function],
  "getByDisplayValue": [Function],
  "getByLabelText": [Function],
  "getByPlaceholderText": [Function],
  "getByRole": [Function],
  "getByTestId": [Function],
  "getByText": [Function],
  "getByTitle": [Function],
  "queryAllByAltText": [Function],
  "queryAllByDisplayValue": [Function],
  "queryAllByLabelText": [Function],
  "queryAllByPlaceholderText": [Function],
  "queryAllByRole": [Function],
  "queryAllByTestId": [Function],
  "queryAllByText": [Function],
  "queryAllByTitle": [Function],
  "queryByAltText": [Function],
  "queryByDisplayValue": [Function],
  "queryByLabelText": [Function],
  "queryByPlaceholderText": [Function],
  "queryByRole": [Function],
  "queryByTestId": [Function],
  "queryByText": [Function],
  "queryByTitle": [Function],
  "rerender": [Function],
  "unmount": [Function],
}
`;
